rtl/log/simulation.log
========================================
IVF Bitstream Decode Test
========================================

[Test 1] Reading Decoder ID...
  ID: 0x41563200
  PASS

[Frame 0] Starting decode...
Sending Frame          0:       3392 bytes
[TIME 185000] Decoder State:  0 ->  1
[TIME 195000] Decoder State:  1 ->  0
[TIME 205000] Decoder State:  0 ->  1
[TIME 215000] Decoder State:  1 ->  3
[TIME 225000] Tile Decoder State:  0 ->  1
[TIME 235000] Tile Decoder State:  1 ->  2
[TIME 245000] Tile Decoder State:  2 ->  3
[TIME 255000] Tile Decoder State:  3 ->  4
[TIME 265000] Tile Decoder State:  4 ->  5
[TIME 275000] Tile Decoder State:  5 ->  6
[TIME 285000] Tile Decoder State:  6 ->  7
[TIME 295000] Tile Decoder State:  7 ->  8
[TIME 305000] Tile Decoder State:  8 -> 10
  Frame          0 sent complete
Waiting for output to complete...
[TIME 4145000] Tile Decoder State: 10 -> 11
[TIME 4155000] Tile Decoder State: 11 ->  0
[TIME 4165000] Decoder State:  3 ->  6
[4175000] Output Ctrl: START EDGE detected! start=1, start_r=0, transfer_active=0, done_r=0
[4175000] Output Ctrl: START detected, total_pixels=6144
[4185000] Output Ctrl: active=1, valid=1, ready=1, count=0/6144, addr=0, plane=0, remaining=4096, pixels_xfer=16
[4185000] Output Ctrl:   transfer_handshake - will_count=16, final=0, offset=0
[4195000] Output Ctrl: active=1, valid=1, ready=1, count=16/6144, addr=1, plane=0, remaining=4080, pixels_xfer=16
[4195000] Output Ctrl:   transfer_handshake - will_count=32, final=0, offset=16
[4205000] Output Ctrl: active=1, valid=1, ready=1, count=32/6144, addr=2, plane=0, remaining=4064, pixels_xfer=16
[4205000] Output Ctrl:   transfer_handshake - will_count=48, final=0, offset=32
[4215000] Output Ctrl: active=1, valid=1, ready=1, count=48/6144, addr=3, plane=0, remaining=4048, pixels_xfer=16
[4215000] Output Ctrl:   transfer_handshake - will_count=64, final=0, offset=48
[4225000] Output Ctrl: active=1, valid=1, ready=1, count=64/6144, addr=4, plane=0, remaining=4032, pixels_xfer=16
[4225000] Output Ctrl:   transfer_handshake - will_count=80, final=0, offset=64
[4235000] Output Ctrl: active=1, valid=1, ready=1, count=80/6144, addr=5, plane=0, remaining=4016, pixels_xfer=16
[4235000] Output Ctrl:   transfer_handshake - will_count=96, final=0, offset=80
[4245000] Output Ctrl: active=1, valid=1, ready=1, count=96/6144, addr=6, plane=0, remaining=4000, pixels_xfer=16
[4245000] Output Ctrl:   transfer_handshake - will_count=112, final=0, offset=96
[4255000] Output Ctrl: active=1, valid=1, ready=1, count=112/6144, addr=7, plane=0, remaining=3984, pixels_xfer=16
[4255000] Output Ctrl:   transfer_handshake - will_count=128, final=0, offset=112
[4265000] Output Ctrl: active=1, valid=1, ready=1, count=128/6144, addr=8, plane=0, remaining=3968, pixels_xfer=16
[4265000] Output Ctrl:   transfer_handshake - will_count=144, final=0, offset=128
[4275000] Output Ctrl: active=1, valid=1, ready=1, count=144/6144, addr=9, plane=0, remaining=3952, pixels_xfer=16
[4275000] Output Ctrl:   transfer_handshake - will_count=160, final=0, offset=144
[4285000] Output Ctrl: active=1, valid=1, ready=1, count=160/6144, addr=10, plane=0, remaining=3936, pixels_xfer=16
[4285000] Output Ctrl:   transfer_handshake - will_count=176, final=0, offset=160
[4295000] Output Ctrl: active=1, valid=1, ready=1, count=176/6144, addr=11, plane=0, remaining=3920, pixels_xfer=16
[4295000] Output Ctrl:   transfer_handshake - will_count=192, final=0, offset=176
[4305000] Output Ctrl: active=1, valid=1, ready=1, count=192/6144, addr=12, plane=0, remaining=3904, pixels_xfer=16
[4305000] Output Ctrl:   transfer_handshake - will_count=208, final=0, offset=192
[4315000] Output Ctrl: active=1, valid=1, ready=1, count=208/6144, addr=13, plane=0, remaining=3888, pixels_xfer=16
[4315000] Output Ctrl:   transfer_handshake - will_count=224, final=0, offset=208
[4325000] Output Ctrl: active=1, valid=1, ready=1, count=224/6144, addr=14, plane=0, remaining=3872, pixels_xfer=16
[4325000] Output Ctrl:   transfer_handshake - will_count=240, final=0, offset=224
[4335000] Output Ctrl: active=1, valid=1, ready=1, count=240/6144, addr=15, plane=0, remaining=3856, pixels_xfer=16
[4335000] Output Ctrl:   transfer_handshake - will_count=256, final=0, offset=240
[4345000] Output Ctrl: active=1, valid=1, ready=1, count=256/6144, addr=16, plane=0, remaining=3840, pixels_xfer=16
[4345000] Output Ctrl:   transfer_handshake - will_count=272, final=0, offset=256
[4355000] Output Ctrl: active=1, valid=1, ready=1, count=272/6144, addr=17, plane=0, remaining=3824, pixels_xfer=16
[4355000] Output Ctrl:   transfer_handshake - will_count=288, final=0, offset=272
[4365000] Output Ctrl: active=1, valid=1, ready=1, count=288/6144, addr=18, plane=0, remaining=3808, pixels_xfer=16
[4365000] Output Ctrl:   transfer_handshake - will_count=304, final=0, offset=288
[4375000] Output Ctrl: active=1, valid=1, ready=1, count=304/6144, addr=19, plane=0, remaining=3792, pixels_xfer=16
[4375000] Output Ctrl:   transfer_handshake - will_count=320, final=0, offset=304
[4385000] Output Ctrl: active=1, valid=1, ready=1, count=320/6144, addr=20, plane=0, remaining=3776, pixels_xfer=16
[4385000] Output Ctrl:   transfer_handshake - will_count=336, final=0, offset=320
[4395000] Output Ctrl: active=1, valid=1, ready=1, count=336/6144, addr=21, plane=0, remaining=3760, pixels_xfer=16
[4395000] Output Ctrl:   transfer_handshake - will_count=352, final=0, offset=336
[4405000] Output Ctrl: active=1, valid=1, ready=1, count=352/6144, addr=22, plane=0, remaining=3744, pixels_xfer=16
[4405000] Output Ctrl:   transfer_handshake - will_count=368, final=0, offset=352
[4415000] Output Ctrl: active=1, valid=1, ready=1, count=368/6144, addr=23, plane=0, remaining=3728, pixels_xfer=16
[4415000] Output Ctrl:   transfer_handshake - will_count=384, final=0, offset=368
[4425000] Output Ctrl: active=1, valid=1, ready=1, count=384/6144, addr=24, plane=0, remaining=3712, pixels_xfer=16
[4425000] Output Ctrl:   transfer_handshake - will_count=400, final=0, offset=384
[4435000] Output Ctrl: active=1, valid=1, ready=1, count=400/6144, addr=25, plane=0, remaining=3696, pixels_xfer=16
[4435000] Output Ctrl:   transfer_handshake - will_count=416, final=0, offset=400
[4445000] Output Ctrl: active=1, valid=1, ready=1, count=416/6144, addr=26, plane=0, remaining=3680, pixels_xfer=16
[4445000] Output Ctrl:   transfer_handshake - will_count=432, final=0, offset=416
[4455000] Output Ctrl: active=1, valid=1, ready=1, count=432/6144, addr=27, plane=0, remaining=3664, pixels_xfer=16
[4455000] Output Ctrl:   transfer_handshake - will_count=448, final=0, offset=432
[4465000] Output Ctrl: active=1, valid=1, ready=1, count=448/6144, addr=28, plane=0, remaining=3648, pixels_xfer=16
[4465000] Output Ctrl:   transfer_handshake - will_count=464, final=0, offset=448
[4475000] Output Ctrl: active=1, valid=1, ready=1, count=464/6144, addr=29, plane=0, remaining=3632, pixels_xfer=16
[4475000] Output Ctrl:   transfer_handshake - will_count=480, final=0, offset=464
[4485000] Output Ctrl: active=1, valid=1, ready=1, count=480/6144, addr=30, plane=0, remaining=3616, pixels_xfer=16
[4485000] Output Ctrl:   transfer_handshake - will_count=496, final=0, offset=480
[4495000] Output Ctrl: active=1, valid=1, ready=1, count=496/6144, addr=31, plane=0, remaining=3600, pixels_xfer=16
[4495000] Output Ctrl:   transfer_handshake - will_count=512, final=0, offset=496
[4505000] Output Ctrl: active=1, valid=1, ready=1, count=512/6144, addr=32, plane=0, remaining=3584, pixels_xfer=16
[4505000] Output Ctrl:   transfer_handshake - will_count=528, final=0, offset=512
[4515000] Output Ctrl: active=1, valid=1, ready=1, count=528/6144, addr=33, plane=0, remaining=3568, pixels_xfer=16
[4515000] Output Ctrl:   transfer_handshake - will_count=544, final=0, offset=528
[4525000] Output Ctrl: active=1, valid=1, ready=1, count=544/6144, addr=34, plane=0, remaining=3552, pixels_xfer=16
[4525000] Output Ctrl:   transfer_handshake - will_count=560, final=0, offset=544
[4535000] Output Ctrl: active=1, valid=1, ready=1, count=560/6144, addr=35, plane=0, remaining=3536, pixels_xfer=16
[4535000] Output Ctrl:   transfer_handshake - will_count=576, final=0, offset=560
[4545000] Output Ctrl: active=1, valid=1, ready=1, count=576/6144, addr=36, plane=0, remaining=3520, pixels_xfer=16
[4545000] Output Ctrl:   transfer_handshake - will_count=592, final=0, offset=576
[4555000] Output Ctrl: active=1, valid=1, ready=1, count=592/6144, addr=37, plane=0, remaining=3504, pixels_xfer=16
[4555000] Output Ctrl:   transfer_handshake - will_count=608, final=0, offset=592
[4565000] Output Ctrl: active=1, valid=1, ready=1, count=608/6144, addr=38, plane=0, remaining=3488, pixels_xfer=16
[4565000] Output Ctrl:   transfer_handshake - will_count=624, final=0, offset=608
[4575000] Output Ctrl: active=1, valid=1, ready=1, count=624/6144, addr=39, plane=0, remaining=3472, pixels_xfer=16
[4575000] Output Ctrl:   transfer_handshake - will_count=640, final=0, offset=624
[4585000] Output Ctrl: active=1, valid=1, ready=1, count=640/6144, addr=40, plane=0, remaining=3456, pixels_xfer=16
[4585000] Output Ctrl:   transfer_handshake - will_count=656, final=0, offset=640
[4595000] Output Ctrl: active=1, valid=1, ready=1, count=656/6144, addr=41, plane=0, remaining=3440, pixels_xfer=16
[4595000] Output Ctrl:   transfer_handshake - will_count=672, final=0, offset=656
[4605000] Output Ctrl: active=1, valid=1, ready=1, count=672/6144, addr=42, plane=0, remaining=3424, pixels_xfer=16
[4605000] Output Ctrl:   transfer_handshake - will_count=688, final=0, offset=672
[4615000] Output Ctrl: active=1, valid=1, ready=1, count=688/6144, addr=43, plane=0, remaining=3408, pixels_xfer=16
[4615000] Output Ctrl:   transfer_handshake - will_count=704, final=0, offset=688
[4625000] Output Ctrl: active=1, valid=1, ready=1, count=704/6144, addr=44, plane=0, remaining=3392, pixels_xfer=16
[4625000] Output Ctrl:   transfer_handshake - will_count=720, final=0, offset=704
[4635000] Output Ctrl: active=1, valid=1, ready=1, count=720/6144, addr=45, plane=0, remaining=3376, pixels_xfer=16
[4635000] Output Ctrl:   transfer_handshake - will_count=736, final=0, offset=720
[4645000] Output Ctrl: active=1, valid=1, ready=1, count=736/6144, addr=46, plane=0, remaining=3360, pixels_xfer=16
[4645000] Output Ctrl:   transfer_handshake - will_count=752, final=0, offset=736
[4655000] Output Ctrl: active=1, valid=1, ready=1, count=752/6144, addr=47, plane=0, remaining=3344, pixels_xfer=16
[4655000] Output Ctrl:   transfer_handshake - will_count=768, final=0, offset=752
[4665000] Output Ctrl: active=1, valid=1, ready=1, count=768/6144, addr=48, plane=0, remaining=3328, pixels_xfer=16
[4665000] Output Ctrl:   transfer_handshake - will_count=784, final=0, offset=768
[4675000] Output Ctrl: active=1, valid=1, ready=1, count=784/6144, addr=49, plane=0, remaining=3312, pixels_xfer=16
[4675000] Output Ctrl:   transfer_handshake - will_count=800, final=0, offset=784
[4685000] Output Ctrl: active=1, valid=1, ready=1, count=800/6144, addr=50, plane=0, remaining=3296, pixels_xfer=16
[4685000] Output Ctrl:   transfer_handshake - will_count=816, final=0, offset=800
[4695000] Output Ctrl: active=1, valid=1, ready=1, count=816/6144, addr=51, plane=0, remaining=3280, pixels_xfer=16
[4695000] Output Ctrl:   transfer_handshake - will_count=832, final=0, offset=816
[4705000] Output Ctrl: active=1, valid=1, ready=1, count=832/6144, addr=52, plane=0, remaining=3264, pixels_xfer=16
[4705000] Output Ctrl:   transfer_handshake - will_count=848, final=0, offset=832
[4715000] Output Ctrl: active=1, valid=1, ready=1, count=848/6144, addr=53, plane=0, remaining=3248, pixels_xfer=16
[4715000] Output Ctrl:   transfer_handshake - will_count=864, final=0, offset=848
[4725000] Output Ctrl: active=1, valid=1, ready=1, count=864/6144, addr=54, plane=0, remaining=3232, pixels_xfer=16
[4725000] Output Ctrl:   transfer_handshake - will_count=880, final=0, offset=864
[4735000] Output Ctrl: active=1, valid=1, ready=1, count=880/6144, addr=55, plane=0, remaining=3216, pixels_xfer=16
[4735000] Output Ctrl:   transfer_handshake - will_count=896, final=0, offset=880
[4745000] Output Ctrl: active=1, valid=1, ready=1, count=896/6144, addr=56, plane=0, remaining=3200, pixels_xfer=16
[4745000] Output Ctrl:   transfer_handshake - will_count=912, final=0, offset=896
[4755000] Output Ctrl: active=1, valid=1, ready=1, count=912/6144, addr=57, plane=0, remaining=3184, pixels_xfer=16
[4755000] Output Ctrl:   transfer_handshake - will_count=928, final=0, offset=912
[4765000] Output Ctrl: active=1, valid=1, ready=1, count=928/6144, addr=58, plane=0, remaining=3168, pixels_xfer=16
[4765000] Output Ctrl:   transfer_handshake - will_count=944, final=0, offset=928
[4775000] Output Ctrl: active=1, valid=1, ready=1, count=944/6144, addr=59, plane=0, remaining=3152, pixels_xfer=16
[4775000] Output Ctrl:   transfer_handshake - will_count=960, final=0, offset=944
[4785000] Output Ctrl: active=1, valid=1, ready=1, count=960/6144, addr=60, plane=0, remaining=3136, pixels_xfer=16
[4785000] Output Ctrl:   transfer_handshake - will_count=976, final=0, offset=960
[4795000] Output Ctrl: active=1, valid=1, ready=1, count=976/6144, addr=61, plane=0, remaining=3120, pixels_xfer=16
[4795000] Output Ctrl:   transfer_handshake - will_count=992, final=0, offset=976
[4805000] Output Ctrl: active=1, valid=1, ready=1, count=992/6144, addr=62, plane=0, remaining=3104, pixels_xfer=16
[4805000] Output Ctrl:   transfer_handshake - will_count=1008, final=0, offset=992
[4815000] Output Ctrl: active=1, valid=1, ready=1, count=1008/6144, addr=63, plane=0, remaining=3088, pixels_xfer=16
[4815000] Output Ctrl:   transfer_handshake - will_count=1024, final=0, offset=1008
[4825000] Output Ctrl: active=1, valid=1, ready=1, count=1024/6144, addr=64, plane=0, remaining=3072, pixels_xfer=16
[4825000] Output Ctrl:   transfer_handshake - will_count=1040, final=0, offset=1024
[4835000] Output Ctrl: active=1, valid=1, ready=1, count=1040/6144, addr=65, plane=0, remaining=3056, pixels_xfer=16
[4835000] Output Ctrl:   transfer_handshake - will_count=1056, final=0, offset=1040
[4845000] Output Ctrl: active=1, valid=1, ready=1, count=1056/6144, addr=66, plane=0, remaining=3040, pixels_xfer=16
[4845000] Output Ctrl:   transfer_handshake - will_count=1072, final=0, offset=1056
[4855000] Output Ctrl: active=1, valid=1, ready=1, count=1072/6144, addr=67, plane=0, remaining=3024, pixels_xfer=16
[4855000] Output Ctrl:   transfer_handshake - will_count=1088, final=0, offset=1072
[4865000] Output Ctrl: active=1, valid=1, ready=1, count=1088/6144, addr=68, plane=0, remaining=3008, pixels_xfer=16
[4865000] Output Ctrl:   transfer_handshake - will_count=1104, final=0, offset=1088
[4875000] Output Ctrl: active=1, valid=1, ready=1, count=1104/6144, addr=69, plane=0, remaining=2992, pixels_xfer=16
[4875000] Output Ctrl:   transfer_handshake - will_count=1120, final=0, offset=1104
[4885000] Output Ctrl: active=1, valid=1, ready=1, count=1120/6144, addr=70, plane=0, remaining=2976, pixels_xfer=16
[4885000] Output Ctrl:   transfer_handshake - will_count=1136, final=0, offset=1120
[4895000] Output Ctrl: active=1, valid=1, ready=1, count=1136/6144, addr=71, plane=0, remaining=2960, pixels_xfer=16
[4895000] Output Ctrl:   transfer_handshake - will_count=1152, final=0, offset=1136
[4905000] Output Ctrl: active=1, valid=1, ready=1, count=1152/6144, addr=72, plane=0, remaining=2944, pixels_xfer=16
[4905000] Output Ctrl:   transfer_handshake - will_count=1168, final=0, offset=1152
[4915000] Output Ctrl: active=1, valid=1, ready=1, count=1168/6144, addr=73, plane=0, remaining=2928, pixels_xfer=16
[4915000] Output Ctrl:   transfer_handshake - will_count=1184, final=0, offset=1168
[4925000] Output Ctrl: active=1, valid=1, ready=1, count=1184/6144, addr=74, plane=0, remaining=2912, pixels_xfer=16
[4925000] Output Ctrl:   transfer_handshake - will_count=1200, final=0, offset=1184
[4935000] Output Ctrl: active=1, valid=1, ready=1, count=1200/6144, addr=75, plane=0, remaining=2896, pixels_xfer=16
[4935000] Output Ctrl:   transfer_handshake - will_count=1216, final=0, offset=1200
[4945000] Output Ctrl: active=1, valid=1, ready=1, count=1216/6144, addr=76, plane=0, remaining=2880, pixels_xfer=16
[4945000] Output Ctrl:   transfer_handshake - will_count=1232, final=0, offset=1216
[4955000] Output Ctrl: active=1, valid=1, ready=1, count=1232/6144, addr=77, plane=0, remaining=2864, pixels_xfer=16
[4955000] Output Ctrl:   transfer_handshake - will_count=1248, final=0, offset=1232
[4965000] Output Ctrl: active=1, valid=1, ready=1, count=1248/6144, addr=78, plane=0, remaining=2848, pixels_xfer=16
[4965000] Output Ctrl:   transfer_handshake - will_count=1264, final=0, offset=1248
[4975000] Output Ctrl: active=1, valid=1, ready=1, count=1264/6144, addr=79, plane=0, remaining=2832, pixels_xfer=16
[4975000] Output Ctrl:   transfer_handshake - will_count=1280, final=0, offset=1264
[4985000] Output Ctrl: active=1, valid=1, ready=1, count=1280/6144, addr=80, plane=0, remaining=2816, pixels_xfer=16
[4985000] Output Ctrl:   transfer_handshake - will_count=1296, final=0, offset=1280
[4995000] Output Ctrl: active=1, valid=1, ready=1, count=1296/6144, addr=81, plane=0, remaining=2800, pixels_xfer=16
[4995000] Output Ctrl:   transfer_handshake - will_count=1312, final=0, offset=1296
[5005000] Output Ctrl: active=1, valid=1, ready=1, count=1312/6144, addr=82, plane=0, remaining=2784, pixels_xfer=16
[5005000] Output Ctrl:   transfer_handshake - will_count=1328, final=0, offset=1312
[5015000] Output Ctrl: active=1, valid=1, ready=1, count=1328/6144, addr=83, plane=0, remaining=2768, pixels_xfer=16
[5015000] Output Ctrl:   transfer_handshake - will_count=1344, final=0, offset=1328
[5025000] Output Ctrl: active=1, valid=1, ready=1, count=1344/6144, addr=84, plane=0, remaining=2752, pixels_xfer=16
[5025000] Output Ctrl:   transfer_handshake - will_count=1360, final=0, offset=1344
[5035000] Output Ctrl: active=1, valid=1, ready=1, count=1360/6144, addr=85, plane=0, remaining=2736, pixels_xfer=16
[5035000] Output Ctrl:   transfer_handshake - will_count=1376, final=0, offset=1360
[5045000] Output Ctrl: active=1, valid=1, ready=1, count=1376/6144, addr=86, plane=0, remaining=2720, pixels_xfer=16
[5045000] Output Ctrl:   transfer_handshake - will_count=1392, final=0, offset=1376
[5055000] Output Ctrl: active=1, valid=1, ready=1, count=1392/6144, addr=87, plane=0, remaining=2704, pixels_xfer=16
[5055000] Output Ctrl:   transfer_handshake - will_count=1408, final=0, offset=1392
[5065000] Output Ctrl: active=1, valid=1, ready=1, count=1408/6144, addr=88, plane=0, remaining=2688, pixels_xfer=16
[5065000] Output Ctrl:   transfer_handshake - will_count=1424, final=0, offset=1408
[5075000] Output Ctrl: active=1, valid=1, ready=1, count=1424/6144, addr=89, plane=0, remaining=2672, pixels_xfer=16
[5075000] Output Ctrl:   transfer_handshake - will_count=1440, final=0, offset=1424
[5085000] Output Ctrl: active=1, valid=1, ready=1, count=1440/6144, addr=90, plane=0, remaining=2656, pixels_xfer=16
[5085000] Output Ctrl:   transfer_handshake - will_count=1456, final=0, offset=1440
[5095000] Output Ctrl: active=1, valid=1, ready=1, count=1456/6144, addr=91, plane=0, remaining=2640, pixels_xfer=16
[5095000] Output Ctrl:   transfer_handshake - will_count=1472, final=0, offset=1456
[5105000] Output Ctrl: active=1, valid=1, ready=1, count=1472/6144, addr=92, plane=0, remaining=2624, pixels_xfer=16
[5105000] Output Ctrl:   transfer_handshake - will_count=1488, final=0, offset=1472
[5115000] Output Ctrl: active=1, valid=1, ready=1, count=1488/6144, addr=93, plane=0, remaining=2608, pixels_xfer=16
[5115000] Output Ctrl:   transfer_handshake - will_count=1504, final=0, offset=1488
[5125000] Output Ctrl: active=1, valid=1, ready=1, count=1504/6144, addr=94, plane=0, remaining=2592, pixels_xfer=16
[5125000] Output Ctrl:   transfer_handshake - will_count=1520, final=0, offset=1504
[5135000] Output Ctrl: active=1, valid=1, ready=1, count=1520/6144, addr=95, plane=0, remaining=2576, pixels_xfer=16
[5135000] Output Ctrl:   transfer_handshake - will_count=1536, final=0, offset=1520
[5145000] Output Ctrl: active=1, valid=1, ready=1, count=1536/6144, addr=96, plane=0, remaining=2560, pixels_xfer=16
[5145000] Output Ctrl:   transfer_handshake - will_count=1552, final=0, offset=1536
[5155000] Output Ctrl: active=1, valid=1, ready=1, count=1552/6144, addr=97, plane=0, remaining=2544, pixels_xfer=16
[5155000] Output Ctrl:   transfer_handshake - will_count=1568, final=0, offset=1552
[5165000] Output Ctrl: active=1, valid=1, ready=1, count=1568/6144, addr=98, plane=0, remaining=2528, pixels_xfer=16
[5165000] Output Ctrl:   transfer_handshake - will_count=1584, final=0, offset=1568
[5175000] Output Ctrl: active=1, valid=1, ready=1, count=1584/6144, addr=99, plane=0, remaining=2512, pixels_xfer=16
[5175000] Output Ctrl:   transfer_handshake - will_count=1600, final=0, offset=1584
[5185000] Output Ctrl: active=1, valid=1, ready=1, count=1600/6144, addr=100, plane=0, remaining=2496, pixels_xfer=16
[5185000] Output Ctrl:   transfer_handshake - will_count=1616, final=0, offset=1600
[5195000] Output Ctrl: active=1, valid=1, ready=1, count=1616/6144, addr=101, plane=0, remaining=2480, pixels_xfer=16
[5195000] Output Ctrl:   transfer_handshake - will_count=1632, final=0, offset=1616
[5205000] Output Ctrl: active=1, valid=1, ready=1, count=1632/6144, addr=102, plane=0, remaining=2464, pixels_xfer=16
[5205000] Output Ctrl:   transfer_handshake - will_count=1648, final=0, offset=1632
[5215000] Output Ctrl: active=1, valid=1, ready=1, count=1648/6144, addr=103, plane=0, remaining=2448, pixels_xfer=16
[5215000] Output Ctrl:   transfer_handshake - will_count=1664, final=0, offset=1648
[5225000] Output Ctrl: active=1, valid=1, ready=1, count=1664/6144, addr=104, plane=0, remaining=2432, pixels_xfer=16
[5225000] Output Ctrl:   transfer_handshake - will_count=1680, final=0, offset=1664
[5235000] Output Ctrl: active=1, valid=1, ready=1, count=1680/6144, addr=105, plane=0, remaining=2416, pixels_xfer=16
[5235000] Output Ctrl:   transfer_handshake - will_count=1696, final=0, offset=1680
[5245000] Output Ctrl: active=1, valid=1, ready=1, count=1696/6144, addr=106, plane=0, remaining=2400, pixels_xfer=16
[5245000] Output Ctrl:   transfer_handshake - will_count=1712, final=0, offset=1696
[5255000] Output Ctrl: active=1, valid=1, ready=1, count=1712/6144, addr=107, plane=0, remaining=2384, pixels_xfer=16
[5255000] Output Ctrl:   transfer_handshake - will_count=1728, final=0, offset=1712
[5265000] Output Ctrl: active=1, valid=1, ready=1, count=1728/6144, addr=108, plane=0, remaining=2368, pixels_xfer=16
[5265000] Output Ctrl:   transfer_handshake - will_count=1744, final=0, offset=1728
[5275000] Output Ctrl: active=1, valid=1, ready=1, count=1744/6144, addr=109, plane=0, remaining=2352, pixels_xfer=16
[5275000] Output Ctrl:   transfer_handshake - will_count=1760, final=0, offset=1744
[5285000] Output Ctrl: active=1, valid=1, ready=1, count=1760/6144, addr=110, plane=0, remaining=2336, pixels_xfer=16
[5285000] Output Ctrl:   transfer_handshake - will_count=1776, final=0, offset=1760
[5295000] Output Ctrl: active=1, valid=1, ready=1, count=1776/6144, addr=111, plane=0, remaining=2320, pixels_xfer=16
[5295000] Output Ctrl:   transfer_handshake - will_count=1792, final=0, offset=1776
[5305000] Output Ctrl: active=1, valid=1, ready=1, count=1792/6144, addr=112, plane=0, remaining=2304, pixels_xfer=16
[5305000] Output Ctrl:   transfer_handshake - will_count=1808, final=0, offset=1792
[5315000] Output Ctrl: active=1, valid=1, ready=1, count=1808/6144, addr=113, plane=0, remaining=2288, pixels_xfer=16
[5315000] Output Ctrl:   transfer_handshake - will_count=1824, final=0, offset=1808
[5325000] Output Ctrl: active=1, valid=1, ready=1, count=1824/6144, addr=114, plane=0, remaining=2272, pixels_xfer=16
[5325000] Output Ctrl:   transfer_handshake - will_count=1840, final=0, offset=1824
[5335000] Output Ctrl: active=1, valid=1, ready=1, count=1840/6144, addr=115, plane=0, remaining=2256, pixels_xfer=16
[5335000] Output Ctrl:   transfer_handshake - will_count=1856, final=0, offset=1840
[5345000] Output Ctrl: active=1, valid=1, ready=1, count=1856/6144, addr=116, plane=0, remaining=2240, pixels_xfer=16
[5345000] Output Ctrl:   transfer_handshake - will_count=1872, final=0, offset=1856
[5355000] Output Ctrl: active=1, valid=1, ready=1, count=1872/6144, addr=117, plane=0, remaining=2224, pixels_xfer=16
[5355000] Output Ctrl:   transfer_handshake - will_count=1888, final=0, offset=1872
[5365000] Output Ctrl: active=1, valid=1, ready=1, count=1888/6144, addr=118, plane=0, remaining=2208, pixels_xfer=16
[5365000] Output Ctrl:   transfer_handshake - will_count=1904, final=0, offset=1888
[5375000] Output Ctrl: active=1, valid=1, ready=1, count=1904/6144, addr=119, plane=0, remaining=2192, pixels_xfer=16
[5375000] Output Ctrl:   transfer_handshake - will_count=1920, final=0, offset=1904
[5385000] Output Ctrl: active=1, valid=1, ready=1, count=1920/6144, addr=120, plane=0, remaining=2176, pixels_xfer=16
[5385000] Output Ctrl:   transfer_handshake - will_count=1936, final=0, offset=1920
[5395000] Output Ctrl: active=1, valid=1, ready=1, count=1936/6144, addr=121, plane=0, remaining=2160, pixels_xfer=16
[5395000] Output Ctrl:   transfer_handshake - will_count=1952, final=0, offset=1936
[5405000] Output Ctrl: active=1, valid=1, ready=1, count=1952/6144, addr=122, plane=0, remaining=2144, pixels_xfer=16
[5405000] Output Ctrl:   transfer_handshake - will_count=1968, final=0, offset=1952
[5415000] Output Ctrl: active=1, valid=1, ready=1, count=1968/6144, addr=123, plane=0, remaining=2128, pixels_xfer=16
[5415000] Output Ctrl:   transfer_handshake - will_count=1984, final=0, offset=1968
[5425000] Output Ctrl: active=1, valid=1, ready=1, count=1984/6144, addr=124, plane=0, remaining=2112, pixels_xfer=16
[5425000] Output Ctrl:   transfer_handshake - will_count=2000, final=0, offset=1984
[5435000] Output Ctrl: active=1, valid=1, ready=1, count=2000/6144, addr=125, plane=0, remaining=2096, pixels_xfer=16
[5435000] Output Ctrl:   transfer_handshake - will_count=2016, final=0, offset=2000
[5445000] Output Ctrl: active=1, valid=1, ready=1, count=2016/6144, addr=126, plane=0, remaining=2080, pixels_xfer=16
[5445000] Output Ctrl:   transfer_handshake - will_count=2032, final=0, offset=2016
[5455000] Output Ctrl: active=1, valid=1, ready=1, count=2032/6144, addr=127, plane=0, remaining=2064, pixels_xfer=16
[5455000] Output Ctrl:   transfer_handshake - will_count=2048, final=0, offset=2032
[5465000] Output Ctrl: active=1, valid=1, ready=1, count=2048/6144, addr=128, plane=0, remaining=2048, pixels_xfer=16
[5465000] Output Ctrl:   transfer_handshake - will_count=2064, final=0, offset=2048
[5475000] Output Ctrl: active=1, valid=1, ready=1, count=2064/6144, addr=129, plane=0, remaining=2032, pixels_xfer=16
[5475000] Output Ctrl:   transfer_handshake - will_count=2080, final=0, offset=2064
[5485000] Output Ctrl: active=1, valid=1, ready=1, count=2080/6144, addr=130, plane=0, remaining=2016, pixels_xfer=16
[5485000] Output Ctrl:   transfer_handshake - will_count=2096, final=0, offset=2080
[5495000] Output Ctrl: active=1, valid=1, ready=1, count=2096/6144, addr=131, plane=0, remaining=2000, pixels_xfer=16
[5495000] Output Ctrl:   transfer_handshake - will_count=2112, final=0, offset=2096
[5505000] Output Ctrl: active=1, valid=1, ready=1, count=2112/6144, addr=132, plane=0, remaining=1984, pixels_xfer=16
[5505000] Output Ctrl:   transfer_handshake - will_count=2128, final=0, offset=2112
[5515000] Output Ctrl: active=1, valid=1, ready=1, count=2128/6144, addr=133, plane=0, remaining=1968, pixels_xfer=16
[5515000] Output Ctrl:   transfer_handshake - will_count=2144, final=0, offset=2128
[5525000] Output Ctrl: active=1, valid=1, ready=1, count=2144/6144, addr=134, plane=0, remaining=1952, pixels_xfer=16
[5525000] Output Ctrl:   transfer_handshake - will_count=2160, final=0, offset=2144
[5535000] Output Ctrl: active=1, valid=1, ready=1, count=2160/6144, addr=135, plane=0, remaining=1936, pixels_xfer=16
[5535000] Output Ctrl:   transfer_handshake - will_count=2176, final=0, offset=2160
[5545000] Output Ctrl: active=1, valid=1, ready=1, count=2176/6144, addr=136, plane=0, remaining=1920, pixels_xfer=16
[5545000] Output Ctrl:   transfer_handshake - will_count=2192, final=0, offset=2176
[5555000] Output Ctrl: active=1, valid=1, ready=1, count=2192/6144, addr=137, plane=0, remaining=1904, pixels_xfer=16
[5555000] Output Ctrl:   transfer_handshake - will_count=2208, final=0, offset=2192
[5565000] Output Ctrl: active=1, valid=1, ready=1, count=2208/6144, addr=138, plane=0, remaining=1888, pixels_xfer=16
[5565000] Output Ctrl:   transfer_handshake - will_count=2224, final=0, offset=2208
[5575000] Output Ctrl: active=1, valid=1, ready=1, count=2224/6144, addr=139, plane=0, remaining=1872, pixels_xfer=16
[5575000] Output Ctrl:   transfer_handshake - will_count=2240, final=0, offset=2224
[5585000] Output Ctrl: active=1, valid=1, ready=1, count=2240/6144, addr=140, plane=0, remaining=1856, pixels_xfer=16
[5585000] Output Ctrl:   transfer_handshake - will_count=2256, final=0, offset=2240
[5595000] Output Ctrl: active=1, valid=1, ready=1, count=2256/6144, addr=141, plane=0, remaining=1840, pixels_xfer=16
[5595000] Output Ctrl:   transfer_handshake - will_count=2272, final=0, offset=2256
[5605000] Output Ctrl: active=1, valid=1, ready=1, count=2272/6144, addr=142, plane=0, remaining=1824, pixels_xfer=16
[5605000] Output Ctrl:   transfer_handshake - will_count=2288, final=0, offset=2272
[5615000] Output Ctrl: active=1, valid=1, ready=1, count=2288/6144, addr=143, plane=0, remaining=1808, pixels_xfer=16
[5615000] Output Ctrl:   transfer_handshake - will_count=2304, final=0, offset=2288
[5625000] Output Ctrl: active=1, valid=1, ready=1, count=2304/6144, addr=144, plane=0, remaining=1792, pixels_xfer=16
